{
  "endWith00": {
    "setOfStates": ["q1", "q2", "q3"],
    "setOfAlphabets": ["0", "1"],
    "initialState": "q1",
    "finalState": ["q3"],
    "transitionFunction": {
      "q1": { "0": ["q1", "q2"], "1": ["q1"] },
      "q2": { "0": ["q3"] },
      "q3": { "0": [""], "1": [""] }
    }
  },

  "inValidFinalStateTuples": {
    "setOfStates": ["q1", "q2", "q3"],
    "setOfAlphabets": ["0", "1"],
    "initialState": "q1",
    "finalState": ["q4"],
    "transitionFunction": {
      "q1": { "0": ["q1", "q2"], "1": ["q1"] },
      "q2": { "0": ["q3"] },
      "q3": { "0": [""], "1": [""] }
    }
  },

  "invalidTransitionFunctionTuples": {
    "setOfStates": ["q1", "q2", "q3"],
    "setOfAlphabets": ["0", "1"],
    "initialState": "q1",
    "finalState": ["q1"],
    "transitionFunction": {
      "q1": { "0": ["q1", "q2"], "1": ["q1"] },
      "q2": { "0": ["q3"] },
      "q3": { "0": [""], "1": [""] },
      "q4": { "0": [""], "q4": [""] }
    }
  },

  "invalidInitialStateTuple": {
    "setOfStates": ["q1", "q2", "q3"],
    "setOfAlphabets": ["0", "1"],
    "initialState": "q4",
    "finalState": ["q3"],
    "transitionFunction": {
      "q1": { "0": ["q1", "q2"], "1": ["q1"] },
      "q2": { "0": ["q3"] },
      "q3": { "0": [""], "1": [""] }
    }
  },

  "havingSubstring00or11": {
    "setOfStates": ["q1", "q2", "q3", "q4"],
    "setOfAlphabets": ["1", "0"],
    "initialState": "q1",
    "finalState": ["q4"],
    "transitionFunction": {
      "q1": {"1" : ["q1", "q3"], "0" : ["q1", "q2"]},
      "q2": {"0" : ["q4"]},
      "q3": {"1" : ["q4"]},
      "q4": {"0": ["q4"], "1": ["q4"]}
    }
  },

  "endWith0": {
    "setOfStates" : ["q1","q2","q3","q4"],
    "setOfAlphabets" : ["0","1", "e"],
    "initialState" : "q1",
    "finalState" : ["q4"],
    "transitionFunction" : {
      "q1" : {"e":["q2"]},
      "q2" : {"e":["q3"]},
      "q3" : {"0":["q3","q4"],"1":["q3"]},
      "q4" : {}
    }
  },
  "twoEplisilon0": {
    "setOfStates" : ["q1","q2","q3","q4"],
    "setOfAlphabets" : ["0","1", "e"],
    "initialState" : "q1",
    "finalState" : ["q4"],
    "transitionFunction" : {
      "q1" : {"e":["q2"]},
      "q2" : {"e":["q3"]},
      "q3" : {"0":["q4"]},
      "q4" : {}
    }
  },
  "endWithEvenNumberOf1s": {
    "setOfStates": ["q1", "q2", "q3", "q4", "q5", "q6"],
    "setOfAlphabets": ["1", "0", "e"],
    "initialState": "q1",
    "finalState": ["q3", "q6"],
    "transitionFunction": {
      "q1": { "0": ["q1"], "1": ["q2", "q4"], "e": ["q4"] },
      "q2": { "1": ["q3"] },
      "q3": { },
      "q4": { "0": ["q5"] },
      "q5": { "0": ["q6"] },
      "q6": { }
    }
  },
  "endWithEpsilon": {
    "setOfStates" : ["q1","q2","q3","q4","q5", "q6", "q7", "q8", "q9"],
    "setOfAlphabets" : ["0","1", "e"],
    "initialState" : "q1",
    "finalState" : ["q4"],
    "transitionFunction":{
      "q1": {"e": ["q2","q5"] },
      "q2":{ "0":["q3"] },
      "q3":{ "0":["q4"] },
      "q4":{},
      "q5":{ "0":["q6"] },
      "q6":{ "0":["q7"] },
      "q7":{ "0":["q8"] },
      "q8":{ "e":["q9"] },
      "q9":{ "e":["q4"] }
    }
  }
}